appdirs==1.4.3
bottle==0.12.19
bottle-websocket==0.2.9
CacheControl==0.12.6
certifi==2019.11.28
chardet==3.0.4
colorama==0.4.3
contextlib2==0.6.0
distlib==0.3.0
distro==1.4.0
Eel==0.14.0
future==0.18.2
gevent==21.1.2
gevent-websocket==0.10.1
greenlet==1.0.0
html5lib==1.0.1
idna==2.8
ipaddr==2.2.0
Jinja2==2.11.3
lockfile==0.12.2
MarkupSafe==1.1.1
msgpack==0.6.2
packaging==20.3
pep517==0.8.2
progress==1.5
pyparsing==2.4.6
pytoml==0.1.21
requests==2.22.0
retrying==1.3.3
six==1.14.0
urllib3==1.25.8
webencodings==0.5.1
whichcraft==0.6.1
zope.event==4.5.0
zope.interface==5.2.0
